{
    "$schema": "https://raw.githubusercontent.com/martinring/tmlanguage/master/tmlanguage.json",
    "name": "Spade",
    "patterns": [
        { "include": "#general" }
    ],
    "repository": {
        "comment": {
            "patterns": [
                {
                    "name": "comment.line.double-slash",
                    "match": "//.+"
                },
                {
                    "name": "comment.block",
                    "begin": "/\\*",
                    "patterns": [
                        {
                            "match": "//.+"
                        }
                    ],
                    "end": "\\*/"
                }
            ]
        },
        "type": {
            "patterns": [
                { "include": "#comment" },
                {
                    "name": "keyword.operator",
                    "match": "[&~]"
                },
                {
                    "name": "keyword.other",
                    "match": "\\bmut\\b"
                },
                {
                    "begin": "<",
                    "beginCaptures": {
                        "0": { "name": "punctuation.brackets.angle" }
                    },
                    "patterns": [
                        { "name": "keyword.operator", "match": "," },
                        { "name": "constant.numeric", "match": "[0-9]\\p{XID_Continue}*" },
                        { "include": "#type" }
                    ],
                    "end": ">",
                    "endCaptures": {
                        "0": { "name": "punctuation.brackets.angle" }
                    }
                },
                {
                    "begin": "\\(",
                    "beginCaptures": {
                        "0": { "name": "punctuation.brackets.round" }
                    },
                    "patterns": [
                        { "name": "keyword.operator", "match": "," },
                        { "include": "#type" }
                    ],
                    "end": "\\)",
                    "endCaptures": {
                        "0": { "name": "punctuation.brackets.round" }
                    }
                },
                {
                    "begin": "\\[",
                    "beginCaptures": {
                        "0": { "name": "punctuation.brackets.square" }
                    },
                    "patterns": [
                        { "name": "keyword.operator", "match": ";" },
                        { "name": "constant.numeric", "match": "\\b[0-9]\\p{XID_Continue}*\\b" },
                        { "include": "#type" }
                    ],
                    "end": "\\]",
                    "endCaptures": {
                        "0": { "name": "punctuation.brackets.square" }
                    }
                },
                {
                    "name": "entity.name.type",
                    "match": "\\b(?!(as|assert|__builtin__|decl|else|entity|enum|false|fn|for|HIGH|HIGHIMP|if|impl|initial|inst|let|LOW|match|mod|mut|pipeline|port|reg|reset|set|stage|struct|trait|true|use)\\b)[\\p{XID_Start}_]\\p{XID_Continue}*\\b"
                }
            ]
        },
        "general": {
            "patterns": [
                { "include": "#comment" },
                {
                    "name": "attribute",
                    "begin": "#\\[",
                    "end": "\\]"
                },
                {
                    "begin": "(::) *(<)",
                    "beginCaptures": {
                        "1": { "name": "keyword.operator" },
                        "2": { "name": "punctuation.brackets.angle" }
                    },
                    "patterns": [
                        { "name": "keyword.operator", "match": "," },
                        { "name": "constant.numeric", "match": "\\b[0-9]\\p{XID_Continue}*\\b" },
                        { "include": "#type" }
                    ],
                    "end": ">",
                    "endCaptures": {
                        "0": { "name": "punctuation.brackets.angle" }
                    }
                },
                {
                    "name": "keyword.operator",
                    "match": "::"
                },
                {
                    "begin": "->|:",
                    "beginCaptures": {
                        "0": { "name": "keyword.operator" }
                    },
                    "patterns": [
                        { "include": "#type" }
                    ],
                    "end": "(?=\\S)",
                    "applyEndPatternLast": 1
                },
                {
                    "begin": "\\buse\\b",
                    "beginCaptures": {
                        "0": { "name": "keyword.other" }
                    },
                    "patterns": [
                        { "include": "#comment" },
                        { "name": "keyword.operator", "match": "::" },
                        { "name": "keyword.other", "match": "\\bas\\b" },
                        {
                            "name": "entity.name.type",
                            "match": "\\b\\p{Lu}\\p{XID_Continue}*\\b"
                        },
                        {
                            "name": "entity.name.namespace",
                            "match": "\\b[\\p{XID_Start}_]\\p{XID_Continue}*(?= *:)\\b"
                        },
                        {
                            "name": "entity.name.function",
                            "match": "\\b[\\p{XID_Start}_]\\p{XID_Continue}*\\b"
                        }
                    ],
                    "end": "(?=\\S)",
                    "applyEndPatternLast": 1
                },
                {
                    "begin": "\\b(reset|initial) *(\\()",
                    "beginCaptures": {
                        "1": { "name": "keyword.other" },
                        "2": { "name": "punctuation.brackets.round" }
                    },
                    "patterns": [
                        { "name": "keyword.operator", "match": ":" },
                        { "include": "#general" }
                    ],
                    "end": "\\)",
                    "endCaptures": {
                        "0": { "name": "punctuation.brackets.round" }
                    }
                },
                {
                    "begin": "\\b(stage) *(\\() *([\\p{XID_Start}_]\\p{XID_Continue}*) *(\\))",
                    "beginCaptures": {
                        "1": { "name": "keyword.other" },
                        "2": { "name": "punctuation.brackets.round" },
                        "3": { "name": "entity.name.label" },
                        "4": { "name": "punctuation.brackets.round" }
                    },
                    "patterns": [
                        { "name": "keyword.operator", "match": ":" },
                        { "include": "#general" }
                    ],
                    "end": "\\)",
                    "endCaptures": {
                        "0": { "name": "punctuation.brackets.round" }
                    }
                },
                {
                    "begin": "(\\$) *(\\()",
                    "beginCaptures": {
                        "1": { "name": "keyword.operator" },
                        "2": { "name": "punctuation.brackets.round" }
                    },
                    "patterns": [
                        { "name": "keyword.operator", "match": "[,:]" },
                        { "include": "#general" }
                    ],
                    "end": "\\)",
                    "endCaptures": {
                        "0": { "name": "punctuation.brackets.round" }
                    }
                },
                {
                    "name": "keyword.other",
                    "match": "\\b(as|assert|decl|entity|enum|fn|impl|inst|let|pipeline|port|reg|self|set|stage|struct|trait|__builtin__)\\b"
                },
                {
                    "name": "meta.preprocessor",
                    "match": "\\$(?:config|if|else)\\b"
                },
                {
                    "name": "keyword.control",
                    "match": "\\b(if|else|match)\\b"
                },
                {
                    "name": "constant.language",
                    "match": "\\b(true|false|LOW|HIGH|HIGHIMP)\\b"
                },
                {
                    "name": "variable.other.constant",
                    "match": "\\b\\p{Lu}[\\p{Lu}0-9_]*(?!\\p{XID_Continue})\\b"
                },
                {
                    "name": "entity.name.type",
                    "match": "\\b\\p{Lu}\\p{XID_Continue}*\\b"
                },
                {
                    "name": "entity.name.function",
                    "match": "\\b[\\p{XID_Start}_]\\p{XID_Continue}*(?= *(?:\\$ *)?\\(| *:: *<)"
                },
                {
                    "name": "entity.name.namespace",
                    "match": "\\b[\\p{XID_Start}_]\\p{XID_Continue}*(?= *::(?! *<))"
                },
                {
                    "name": "keyword.operator",
                    "match": "\\b_\\b"
                },
                {
                    "name": "entity.name.label",
                    "match": "'[\\p{XID_Start}_]\\p{XID_Continue}*\\b"
                },
                {
                    "name": "variable",
                    "match": "\\b[\\p{XID_Start}_]\\p{XID_Continue}*\\b"
                },
                {
                    "name": "constant.numeric",
                    "match": "(#|\\b)[0-9]\\p{XID_Continue}*\\b"
                },
                {
                    "name": "keyword.operator",
                    "match": "(&&|\\|\\|[!=><]=|<<|>>)[+\\-*&|\\^=!><~.]"
                },
                {
                    "name": "punctuation.bracket.round",
                    "match": "[\\(\\)]"
                },
                {
                    "name": "punctuation.bracket.square",
                    "match": "[\\[\\]]"
                },
                {
                    "name": "punctuation.bracket.curly",
                    "match": "[\\{\\}]"
                }
            ]
        }
    },
    "scopeName": "source.spade"
}
